Computer Composition Principle Experiments/FPGA/LAB/simulation/qsim/COUNTER.msim.vcd
$comment
	File created using the following command:
		vcd file COUNTER.msim.vcd -direction
$end
$date
	Mon Nov 26 17:48:38 2018
$end
$version
	ModelSim Version 10.1d
$end
$timescale
	1ps
$end
$scope module CNT10_vlg_vec_tst $end
$var reg 1 ! ENB $end
$var reg 1 " F_IN $end
$var reg 1 # LOCK $end
$var reg 1 $ RST $end
$var wire 1 % Q [23] $end
$var wire 1 & Q [22] $end
$var wire 1 ' Q [21] $end
$var wire 1 ( Q [20] $end
$var wire 1 ) Q [19] $end
$var wire 1 * Q [18] $end
$var wire 1 + Q [17] $end
$var wire 1 , Q [16] $end
$var wire 1 - Q [15] $end
$var wire 1 . Q [14] $end
$var wire 1 / Q [13] $end
$var wire 1 0 Q [12] $end
$var wire 1 1 Q [11] $end
$var wire 1 2 Q [10] $end
$var wire 1 3 Q [9] $end
$var wire 1 4 Q [8] $end
$var wire 1 5 Q [7] $end
$var wire 1 6 Q [6] $end
$var wire 1 7 Q [5] $end
$var wire 1 8 Q [4] $end
$var wire 1 9 Q [3] $end
$var wire 1 : Q [2] $end
$var wire 1 ; Q [1] $end
$var wire 1 < Q [0] $end
$var wire 1 = sampler $end
$scope module i1 $end
$var wire 1 > gnd $end
$var wire 1 ? vcc $end
$var wire 1 @ unknown $end
$var tri1 1 A devclrn $end
$var tri1 1 B devpor $end
$var tri1 1 C devoe $end
$var wire 1 D Q[23]~output_o $end
$var wire 1 E Q[22]~output_o $end
$var wire 1 F Q[21]~output_o $end
$var wire 1 G Q[20]~output_o $end
$var wire 1 H Q[19]~output_o $end
$var wire 1 I Q[18]~output_o $end
$var wire 1 J Q[17]~output_o $end
$var wire 1 K Q[16]~output_o $end
$var wire 1 L Q[15]~output_o $end
$var wire 1 M Q[14]~output_o $end
$var wire 1 N Q[13]~output_o $end
$var wire 1 O Q[12]~output_o $end
$var wire 1 P Q[11]~output_o $end
$var wire 1 Q Q[10]~output_o $end
$var wire 1 R Q[9]~output_o $end
$var wire 1 S Q[8]~output_o $end
$var wire 1 T Q[7]~output_o $end
$var wire 1 U Q[6]~output_o $end
$var wire 1 V Q[5]~output_o $end
$var wire 1 W Q[4]~output_o $end
$var wire 1 X Q[3]~output_o $end
$var wire 1 Y Q[2]~output_o $end
$var wire 1 Z Q[1]~output_o $end
$var wire 1 [ Q[0]~output_o $end
$var wire 1 \ LOCK~input_o $end
$var wire 1 ] LOCK~inputclkctrl_outclk $end
$var wire 1 ^ ENB~input_o $end
$var wire 1 _ F_IN~input_o $end
$var wire 1 ` inst1|inst8~combout $end
$var wire 1 a inst1|inst|7~0_combout $end
$var wire 1 b inst1|inst|7~feeder_combout $end
$var wire 1 c RST~input_o $end
$var wire 1 d RST~inputclkctrl_outclk $end
$var wire 1 e inst1|inst|7~q $end
$var wire 1 f inst1|inst|20~combout $end
$var wire 1 g inst1|inst|6~0_combout $end
$var wire 1 h inst1|inst|6~feeder_combout $end
$var wire 1 i inst1|inst|6~q $end
$var wire 1 j inst1|inst|5~0_combout $end
$var wire 1 k inst1|inst|5~q $end
$var wire 1 l inst1|inst|3~0_combout $end
$var wire 1 m inst1|inst|3~feeder_combout $end
$var wire 1 n inst1|inst|3~q $end
$var wire 1 o inst1|inst9~combout $end
$var wire 1 p inst1|inst|34~0_combout $end
$var wire 1 q inst1|inst|34~q $end
$var wire 1 r inst1|inst|31~0_combout $end
$var wire 1 s inst1|inst|31~feeder_combout $end
$var wire 1 t inst1|inst|31~q $end
$var wire 1 u inst1|inst|29~combout $end
$var wire 1 v inst1|inst|33~0_combout $end
$var wire 1 w inst1|inst|33~feeder_combout $end
$var wire 1 x inst1|inst|33~q $end
$var wire 1 y inst1|inst|32~0_combout $end
$var wire 1 z inst1|inst|32~q $end
$var wire 1 { inst2|inst8~0_combout $end
$var wire 1 | inst2|inst8~combout $end
$var wire 1 } inst2|inst|7~0_combout $end
$var wire 1 ~ inst2|inst|7~feeder_combout $end
$var wire 1 !! inst2|inst|7~q $end
$var wire 1 "! inst2|inst|20~combout $end
$var wire 1 #! inst2|inst|6~0_combout $end
$var wire 1 $! inst2|inst|6~feeder_combout $end
$var wire 1 %! inst2|inst|6~q $end
$var wire 1 &! inst2|inst|5~0_combout $end
$var wire 1 '! inst2|inst|5~q $end
$var wire 1 (! inst2|inst|3~0_combout $end
$var wire 1 )! inst2|inst|3~feeder_combout $end
$var wire 1 *! inst2|inst|3~q $end
$var wire 1 +! inst2|inst9~combout $end
$var wire 1 ,! inst2|inst|34~0_combout $end
$var wire 1 -! inst2|inst|34~feeder_combout $end
$var wire 1 .! inst2|inst|34~q $end
$var wire 1 /! inst2|inst|29~combout $end
$var wire 1 0! inst2|inst|33~0_combout $end
$var wire 1 1! inst2|inst|33~q $end
$var wire 1 2! inst2|inst|32~0_combout $end
$var wire 1 3! inst2|inst|32~q $end
$var wire 1 4! inst2|inst|31~0_combout $end
$var wire 1 5! inst2|inst|31~feeder_combout $end
$var wire 1 6! inst2|inst|31~q $end
$var wire 1 7! inst|inst8~0_combout $end
$var wire 1 8! inst|inst8~combout $end
$var wire 1 9! inst|inst|7~0_combout $end
$var wire 1 :! inst|inst|7~feeder_combout $end
$var wire 1 ;! inst|inst|7~q $end
$var wire 1 <! inst|inst|20~combout $end
$var wire 1 =! inst|inst|6~0_combout $end
$var wire 1 >! inst|inst|6~feeder_combout $end
$var wire 1 ?! inst|inst|6~q $end
$var wire 1 @! inst|inst|5~0_combout $end
$var wire 1 A! inst|inst|5~q $end
$var wire 1 B! inst|inst|3~0_combout $end
$var wire 1 C! inst|inst|3~feeder_combout $end
$var wire 1 D! inst|inst|3~q $end
$var wire 1 E! inst|inst9~combout $end
$var wire 1 F! inst|inst|34~0_combout $end
$var wire 1 G! inst|inst|34~feeder_combout $end
$var wire 1 H! inst|inst|34~q $end
$var wire 1 I! inst|inst|29~combout $end
$var wire 1 J! inst|inst|33~0_combout $end
$var wire 1 K! inst|inst|33~q $end
$var wire 1 L! inst|inst|32~0_combout $end
$var wire 1 M! inst|inst|32~q $end
$var wire 1 N! inst|inst|31~0_combout $end
$var wire 1 O! inst|inst|31~feeder_combout $end
$var wire 1 P! inst|inst|31~q $end
$var wire 1 Q! inst7|20~feeder_combout $end
$var wire 1 R! inst7|20~q $end
$var wire 1 S! inst7|19~feeder_combout $end
$var wire 1 T! inst7|19~q $end
$var wire 1 U! inst7|18~feeder_combout $end
$var wire 1 V! inst7|18~q $end
$var wire 1 W! inst7|17~q $end
$var wire 1 X! inst7|16~feeder_combout $end
$var wire 1 Y! inst7|16~q $end
$var wire 1 Z! inst7|15~q $end
$var wire 1 [! inst7|14~feeder_combout $end
$var wire 1 \! inst7|14~q $end
$var wire 1 ]! inst7|13~q $end
$var wire 1 ^! inst8|20~feeder_combout $end
$var wire 1 _! inst8|20~q $end
$var wire 1 `! inst8|19~feeder_combout $end
$var wire 1 a! inst8|19~q $end
$var wire 1 b! inst8|18~feeder_combout $end
$var wire 1 c! inst8|18~q $end
$var wire 1 d! inst8|17~feeder_combout $end
$var wire 1 e! inst8|17~q $end
$var wire 1 f! inst8|16~feeder_combout $end
$var wire 1 g! inst8|16~q $end
$var wire 1 h! inst8|15~q $end
$var wire 1 i! inst8|14~feeder_combout $end
$var wire 1 j! inst8|14~q $end
$var wire 1 k! inst8|13~feeder_combout $end
$var wire 1 l! inst8|13~q $end
$var wire 1 m! inst9|20~q $end
$var wire 1 n! inst9|19~feeder_combout $end
$var wire 1 o! inst9|19~q $end
$var wire 1 p! inst9|18~q $end
$var wire 1 q! inst9|17~q $end
$var wire 1 r! inst9|16~q $end
$var wire 1 s! inst9|15~feeder_combout $end
$var wire 1 t! inst9|15~q $end
$var wire 1 u! inst9|14~feeder_combout $end
$var wire 1 v! inst9|14~q $end
$var wire 1 w! inst9|13~feeder_combout $end
$var wire 1 x! inst9|13~q $end
$upscope $end
$upscope $end
$enddefinitions $end
#0
$dumpvars
0!
0"
0#
0$
x@
1A
1B
1C
xD
xE
xF
xG
xH
xI
xJ
xK
xL
xM
xN
xO
xP
xQ
xR
xS
xT
xU
xV
xW
xX
xY
xZ
x[
0\
x]
0^
0_
x`
xa
xb
0c
xd
0e
xf
xg
xh
0i
1j
0k
xl
xm
0n
xo
xp
0q
xr
xs
0t
xu
xv
xw
0x
1y
0z
x{
x<
x;
x:
x9
x8
x7
x6
x5
x4
x3
x2
x1
x0
x/
x.
x-
x,
x+
x*
x)
x(
x'
x&
x%
x=
0>
1?
x|
x}
x~
0!!
x"!
x#!
x$!
0%!
1&!
0'!
x(!
x)!
0*!
x+!
x,!
x-!
0.!
x/!
x0!
01!
12!
03!
x4!
x5!
06!
x7!
x8!
x9!
x:!
0;!
x<!
x=!
x>!
0?!
1@!
0A!
xB!
xC!
0D!
xE!
xF!
xG!
0H!
xI!
xJ!
0K!
1L!
0M!
xN!
xO!
0P!
xQ!
0R!
xS!
0T!
xU!
0V!
0W!
xX!
0Y!
0Z!
x[!
0\!
0]!
x^!
0_!
x`!
0a!
xb!
0c!
xd!
0e!
xf!
0g!
0h!
xi!
0j!
xk!
0l!
0m!
xn!
0o!
0p!
0q!
0r!
xs!
0t!
xu!
0v!
xw!
0x!
$end
#145
0d
0]
#429
0B!
#439
1u
1"!
#447
0r
#460
1f
#461
1I!
#553
04!
#561
0(!
#565
0l
0N!
#592
1J!
#594
0o
#717
07!
#738
10!
#744
1<!
#750
0C!
#813
1v
#830
1p
#833
0{
#867
1E!
#872
1g
05!
#880
0)!
#881
1=!
#884
0O!
#887
0m
#896
0s
#928
1/!
#994
1`
#1046
1,!
#1051
1#!
#1092
0S!
#1100
0+!
#1122
1}
#1127
1F!
#1158
19!
#1164
1|
#1293
0n!
#1319
18!
#1323
0`!
#1344
0s!
#1382
0Q!
#1501
1a
#1514
1w
#1570
1h
#1576
1>!
#1841
1-!
#1933
1$!
#2025
1~
#2082
1G!
#2121
1:!
#2242
x!!
#2543
0b!
#2564
0S
04
#2566
0O
00
#2588
0w!
#2589
0P
01
#2595
0I
0*
#2600
0H
0)
#2601
x"!
#2610
0R
0K
03
0,
#2616
0J
0+
#2620
0Q
02
#2625
0f!
#2637
0[!
#2654
0u!
#2661
0^!
#2678
0E
0d!
0&
#2686
0G
0(
#2707
0i!
#2711
0L
0-
#2718
0U!
#2719
0D
0%
#2720
0F
0'
#2737
0M
0.
#2746
0N
0/
#2772
1b
#2821
0X!
#3298
x}
#3791
0T
05
#3930
0W
08
#4214
x~
#4270
0[
0<
#4542
0Z
0;
#4936
0Y
0:
#5272
0V
07
#5406
0U
06
#5757
0X
09
#75000
1"
0=
#75699
1_
#150000
0"
1=
#150862
0_
#225000
1"
0=
#225699
1_
#300000
0"
1=
#300862
0_
#320000
1$
0=
#320699
1c
#320862
1d
#322582
0!!
#323021
1"!
#323704
1}
#324607
1~
#325155
0k!
#375000
1"
1=
#375699
1_
#450000
0"
0=
#450862
0_
#525000
1"
1=
#525699
1_
#600000
0"
0=
#600862
0_
#640000
0$
1=
#640862
0c
#641007
0d
#675000
1"
0=
#675699
1_
#750000
0"
1=
#750862
0_
#825000
1"
0=
#825699
1_
#900000
0"
1=
#900862
0_
#960000
1!
0=
#960689
1^
#975000
1"
1=
#975699
1_
#978544
0`
#1050000
0"
0=
#1050862
0_
#1053974
1`
#1054883
1e
#1055263
0f
#1056299
0a
#1057349
1w!
#1057579
0b
#1125000
1"
1=
#1125699
1_
#1128544
0`
#1200000
0"
0=
#1200862
0_
#1203974
1`
#1204883
0e
#1205343
1f
#1206384
1a
#1206390
1i
#1207192
0g
#1207471
0w!
#1207655
1b
#1207935
0h
#1209050
1u!
#1275000
1"
1=
#1275699
1_
#1278544
0`
#1350000
0"
0=
#1350862
0_
#1353974
1`
#1354883
1e
#1355263
0f
#1356299
0a
#1357349
1w!
#1357579
0b
#1425000
1"
1=
#1425699
1_
#1428544
0`
#1500000
0"
0=
#1500862
0_
#1503974
1`
#1504883
0e
#1505343
1f
#1506384
1a
#1506390
0i
#1507262
1g
#1507471
0w!
#1507493
1k
#1507655
1b
#1507862
0j
#1507960
1h
#1508779
1s!
#1509044
0u!
#1575000
1"
1=
#1575699
1_
#1578544
0`
#1650000
0"
0=
#1650862
0_
#1653974
1`
#1654883
1e
#1655263
0f
#1656299
0a
#1657349
1w!
#1657579
0b
#1725000
1"
1=
#1725699
1_
#1728544
0`
#1800000
0"
0=
#1800862
0_
#1803974
1`
#1804883
0e
#1805343
1f
#1806384
1a
#1806390
1i
#1807192
0g
#1807369
1l
#1807471
0w!
#1807655
1b
#1807675
1m
#1807935
0h
#1809050
1u!
#1875000
1"
1=
#1875699
1_
#1878544
0`
#1950000
0"
0=
#1950862
0_
#1953974
1`
#1954883
1e
#1955263
0f
#1956299
0a
#1957349
1w!
#1957579
0b
#2025000
1"
1=
#2025699
1_
#2028544
0`
#2100000
0"
0=
#2100862
0_
#2103974
1`
#2104883
0e
#2105343
1f
#2106272
1n
#2106384
1a
#2106390
0i
#2107262
1g
#2107356
0l
#2107471
0w!
#2107493
0k
#2107655
1b
#2107678
0m
#2107846
1j
#2107960
1h
#2108837
0s!
#2109044
0u!
#2175000
1"
1=
#2175699
1_
#2178544
0`
#2240000
1#
0=
#2240699
1\
#2240862
1]
#2242549
1r!
#2248115
1X
19
#2250000
0"
1=
#2250862
0_
#2253974
1`
#2254883
1e
#2255431
1o
#2256299
0a
#2257349
1w!
#2257579
0b
#2325000
1"
0=
#2325699
1_
#2328544
0`
#2400000
0"
1=
#2400862
0_
#2403974
1`
#2404883
0e
#2405477
0o
#2406272
0n
#2406384
1a
#2406574
1q
#2406934
0u
#2407336
0p
#2407471
0w!
#2407655
1b
#2475000
1"
0=
#2475699
1_
#2478544
0`
#2550000
0"
1=
#2550862
0_
#2553974
1`
#2554883
1e
#2555263
0f
#2556299
0a
#2557349
1w!
#2557579
0b
#2560000
0#
0=
#2560862
0\
#2561007
0]
#2625000
1"
1=
#2625699
1_
#2628544
0`
#2700000
0"
0=
#2700862
0_
#2703974
1`
#2704883
0e
#2705343
1f
#2706384
1a
#2706390
1i
#2707192
0g
#2707471
0w!
#2707655
1b
#2707935
0h
#2709050
1u!
#2775000
1"
1=
#2775699
1_
#2778544
0`
#2850000
0"
0=
#2850862
0_
#2853974
1`
#2854883
1e
#2855263
0f
#2856299
0a
#2857349
1w!
#2857579
0b
#2880000
0!
1=
#2880852
0^
#2925000
1"
0=
#2925699
1_
#3000000
0"
1=
#3000862
0_
#3075000
1"
0=
#3075699
1_
#3150000
0"
1=
#3150862
0_
#3200000
1$
0=
#3200699
1c
#3200862
1d
#3202566
0i
#3202567
0e
#3202582
0q
#3203021
1u
#3203027
1f
#3203412
1p
#3203438
1g
#3204068
1a
#3204136
1h
#3205155
0w!
#3205220
0u!
#3205339
1b
#3225000
1"
1=
#3225699
1_
#3300000
0"
0=
#3300862
0_
#3375000
1"
1=
#3375699
1_
#3450000
0"
0=
#3450862
0_
#3520000
0$
1=
#3520862
0c
#3521007
0d
#3525000
1"
0=
#3525699
1_
#3600000
0"
1=
#3600862
0_
#3675000
1"
0=
#3675699
1_
#3750000
0"
1=
#3750862
0_
#3825000
1"
0=
#3825699
1_
#3840000
1!
1=
#3840689
1^
#3841687
0`
#3900000
0"
0=
#3900862
0_
#3903974
1`
#3904883
1e
#3905263
0f
#3906299
0a
#3907349
1w!
#3907579
0b
#3975000
1"
1=
#3975699
1_
#3978544
0`
#4050000
0"
0=
#4050862
0_
#4053974
1`
#4054883
0e
#4055343
1f
#4056384
1a
#4056390
1i
#4057192
0g
#4057471
0w!
#4057655
1b
#4057935
0h
#4059050
1u!
#4125000
1"
1=
#4125699
1_
#4128544
0`
#4200000
0"
0=
#4200862
0_
#4203974
1`
#4204883
1e
#4205263
0f
#4206299
0a
#4207349
1w!
#4207579
0b
#4275000
1"
1=
#4275699
1_
#4278544
0`
#4350000
0"
0=
#4350862
0_
#4353974
1`
#4354883
0e
#4355343
1f
#4356384
1a
#4356390
0i
#4357262
1g
#4357471
0w!
#4357493
1k
#4357655
1b
#4357862
0j
#4357960
1h
#4358779
1s!
#4359044
0u!
#4425000
1"
1=
#4425699
1_
#4428544
0`
#4500000
0"
0=
#4500862
0_
#4503974
1`
#4504883
1e
#4505263
0f
#4506299
0a
#4507349
1w!
#4507579
0b
#4575000
1"
1=
#4575699
1_
#4578544
0`
#4650000
0"
0=
#4650862
0_
#4653974
1`
#4654883
0e
#4655343
1f
#4656384
1a
#4656390
1i
#4657192
0g
#4657369
1l
#4657471
0w!
#4657655
1b
#4657675
1m
#4657935
0h
#4659050
1u!
#4725000
1"
1=
#4725699
1_
#4728544
0`
#4800000
1#
0"
0=
#4800699
1\
#4800862
0_
1]
#4802547
1t!
1v!
#4802549
0r!
#4803974
1`
#4804883
1e
#4805263
0f
#4806299
0a
#4806987
1Z
1;
#4807349
1w!
#4807387
1Y
1:
#4807579
0b
#4808306
0X
09
#4875000
1"
1=
#4875699
1_
#4878544
0`
#4950000
0"
0=
#4950862
0_
#4953974
1`
#4954883
0e
#4955343
1f
#4956272
1n
#4956384
1a
#4956390
0i
#4957262
1g
#4957356
0l
#4957471
0w!
#4957493
0k
#4957655
1b
#4957678
0m
#4957846
1j
#4957960
1h
#4958837
0s!
#4959044
0u!
#5025000
1"
1=
#5025699
1_
#5028544
0`
#5100000
0"
0=
#5100862
0_
#5103974
1`
#5104883
1e
#5105431
1o
#5106299
0a
#5107349
1w!
#5107579
0b
#5120000
0#
1=
#5120862
0\
#5121007
0]
#5175000
1"
0=
#5175699
1_
#5178544
0`
#5250000
0"
1=
#5250862
0_
#5253974
1`
#5254883
0e
#5255477
0o
#5256272
0n
#5256384
1a
#5256574
1q
#5256934
0u
#5257336
0p
#5257471
0w!
#5257655
1b
#5325000
1"
0=
#5325699
1_
#5328544
0`
#5400000
0"
1=
#5400862
0_
#5403974
1`
#5404883
1e
#5405263
0f
#5406299
0a
#5407349
1w!
#5407579
0b
#5440000
0!
0=
#5440852
0^
#5475000
1"
1=
#5475699
1_
#5550000
0"
0=
#5550862
0_
#5625000
1"
1=
#5625699
1_
#5700000
0"
0=
#5700862
0_
#5760000
1$
1=
#5760699
1c
#5760862
1d
#5762567
0e
#5762582
0q
#5763021
1u
#5763027
1f
#5763412
1p
#5764068
1a
#5765155
0w!
#5765339
1b
#5775000
1"
0=
#5775699
1_
#5850000
0"
1=
#5850862
0_
#5925000
1"
0=
#5925699
1_
#6000000
0"
1=
#6000862
0_
#6075000
1"
0=
#6075699
1_
#6080000
0$
1=
#6080862
0c
#6081007
0d
#6150000
0"
0=
#6150862
0_
#6225000
1"
1=
#6225699
1_
#6300000
0"
0=
#6300862
0_
#6375000
1"
1=
#6375699
1_
#6400000
1!
0=
#6400689
1^
#6401687
0`
#6450000
0"
1=
#6450862
0_
#6453974
1`
#6454883
1e
#6455263
0f
#6456299
0a
#6457349
1w!
#6457579
0b
#6525000
1"
0=
#6525699
1_
#6528544
0`
#6600000
0"
1=
#6600862
0_
#6603974
1`
#6604883
0e
#6605343
1f
#6606384
1a
#6606390
1i
#6607192
0g
#6607471
0w!
#6607655
1b
#6607935
0h
#6609050
1u!
#6675000
1"
0=
#6675699
1_
#6678544
0`
#6750000
0"
1=
#6750862
0_
#6753974
1`
#6754883
1e
#6755263
0f
#6756299
0a
#6757349
1w!
#6757579
0b
#6825000
1"
0=
#6825699
1_
#6828544
0`
#6900000
0"
1=
#6900862
0_
#6903974
1`
#6904883
0e
#6905343
1f
#6906384
1a
#6906390
0i
#6907262
1g
#6907471
0w!
#6907493
1k
#6907655
1b
#6907862
0j
#6907960
1h
#6908779
1s!
#6909044
0u!
#6975000
1"
0=
#6975699
1_
#6978544
0`
#7050000
0"
1=
#7050862
0_
#7053974
1`
#7054883
1e
#7055263
0f
#7056299
0a
#7057349
1w!
#7057579
0b
#7125000
1"
0=
#7125699
1_
#7128544
0`
#7200000
0"
1=
#7200862
0_
#7203974
1`
#7204883
0e
#7205343
1f
#7206384
1a
#7206390
1i
#7207192
0g
#7207369
1l
#7207471
0w!
#7207655
1b
#7207675
1m
#7207935
0h
#7209050
1u!
#7275000
1"
0=
#7275699
1_
#7278544
0`
#7350000
0"
1=
#7350862
0_
#7353974
1`
#7354883
1e
#7355263
0f
#7356299
0a
#7357349
1w!
#7357579
0b
#7360000
1#
0=
#7360699
1\
#7360862
1]
#7362549
1x!
#7366769
1[
1<
#7425000
1"
1=
#7425699
1_
#7428544
0`
#7500000
0"
0=
#7500862
0_
#7503974
1`
#7504883
0e
#7505343
1f
#7506272
1n
#7506384
1a
#7506390
0i
#7507262
1g
#7507356
0l
#7507471
0w!
#7507493
0k
#7507655
1b
#7507678
0m
#7507846
1j
#7507960
1h
#7508837
0s!
#7509044
0u!
#7575000
1"
1=
#7575699
1_
#7578544
0`
#7650000
0"
0=
#7650862
0_
#7653974
1`
#7654883
1e
#7655431
1o
#7656299
0a
#7657349
1w!
#7657579
0b
#7680000
0#
1=
#7680862
0\
#7681007
0]
#7725000
1"
0=
#7725699
1_
#7728544
0`
#7800000
0"
1=
#7800862
0_
#7803974
1`
#7804883
0e
#7805477
0o
#7806272
0n
#7806384
1a
#7806574
1q
#7806934
0u
#7807336
0p
#7807471
0w!
#7807655
1b
#7875000
1"
0=
#7875699
1_
#7878544
0`
#7950000
0"
1=
#7950862
0_
#7953974
1`
#7954883
1e
#7955263
0f
#7956299
0a
#7957349
1w!
#7957579
0b
#8000000
0!
0=
#8000852
0^
#8025000
1"
1=
#8025699
1_
#8100000
0"
0=
#8100862
0_
#8175000
1"
1=
#8175699
1_
#8250000
0"
0=
#8250862
0_
#8320000
1$
1=
#8320699
1c
#8320862
1d
#8322567
0e
#8322582
0q
#8323021
1u
#8323027
1f
#8323412
1p
#8324068
1a
#8325000
1"
0=
#8325155
0w!
#8325339
1b
#8325699
1_
#8400000
0"
1=
#8400862
0_
#8475000
1"
0=
#8475699
1_
#8550000
0"
1=
#8550862
0_
#8625000
1"
0=
#8625699
1_
#8640000
0$
1=
#8640862
0c
#8641007
0d
#8700000
0"
0=
#8700862
0_
#8775000
1"
1=
#8775699
1_
#8850000
0"
0=
#8850862
0_
#8925000
1"
1=
#8925699
1_
#8960000
1!
0=
#8960689
1^
#8961687
0`
#9000000
0"
1=
#9000862
0_
#9003974
1`
#9004883
1e
#9005263
0f
#9006299
0a
#9007349
1w!
#9007579
0b
#9075000
1"
0=
#9075699
1_
#9078544
0`
#9150000
0"
1=
#9150862
0_
#9153974
1`
#9154883
0e
#9155343
1f
#9156384
1a
#9156390
1i
#9157192
0g
#9157471
0w!
#9157655
1b
#9157935
0h
#9159050
1u!
#9225000
1"
0=
#9225699
1_
#9228544
0`
#9300000
0"
1=
#9300862
0_
#9303974
1`
#9304883
1e
#9305263
0f
#9306299
0a
#9307349
1w!
#9307579
0b
#9375000
1"
0=
#9375699
1_
#9378544
0`
#9450000
0"
1=
#9450862
0_
#9453974
1`
#9454883
0e
#9455343
1f
#9456384
1a
#9456390
0i
#9457262
1g
#9457471
0w!
#9457493
1k
#9457655
1b
#9457862
0j
#9457960
1h
#9458779
1s!
#9459044
0u!
#9525000
1"
0=
#9525699
1_
#9528544
0`
#9600000
0"
1=
#9600862
0_
#9603974
1`
#9604883
1e
#9605263
0f
#9606299
0a
#9607349
1w!
#9607579
0b
#9675000
1"
0=
#9675699
1_
#9678544
0`
#9750000
0"
1=
#9750862
0_
#9753974
1`
#9754883
0e
#9755343
1f
#9756384
1a
#9756390
1i
#9757192
0g
#9757369
1l
#9757471
0w!
#9757655
1b
#9757675
1m
#9757935
0h
#9759050
1u!
#9825000
1"
0=
#9825699
1_
#9828544
0`
#9900000
0"
1=
#9900862
0_
#9903974
1`
#9904883
1e
#9905263
0f
#9906299
0a
#9907349
1w!
#9907579
0b
#9975000
1"
0=
#9975699
1_
#9978544
0`
